[
  {
    "iconUrl":"vk",
    "login":"avakado",
    "password":"avakado123",
    "message":"be free",
    "using": "false",
    "info":"Укажите логин и пароль специального аккаунта для заливки в ВКонтакте, убедитесь, что данный аккаунт имеет доступ к загрузке фотографий в указанный альбом. ID - альбома можно найти в URL страницы нужного альбома"
  },
  {
    "iconUrl":"fb",
    "login":"mango",
    "password":"mango123123",
    "message":"stay cool",
    "using": "true",
    "info":"укажите логин и пароль аккаунта для заливки в Instagram"
  },
  {
    "iconUrl":"insta",
    "login":"watermelon",
    "password":"123watermelon123",
    "message":"you are the best",
    "using": "true",
    "info":"Укажите логин и пароль специального аккаунта для заливки в Facebook, убедитесь, что данный аккаунт имеет доступ к загрузке фотографий в указанный альбом. ID - альбома можно найти в URL страницы нужного альбома"
  }
]